[
  {
    "id": 1,
    "description": "Robo"
  },
  {
    "id": 2,
    "description": "Secuestro"
  },
  {
    "id": 3,
    "description": "Intento de secuestro"
  },
  {
    "id": 4,
    "description": "Asalto"
  },
  {
    "id": 5,
    "description": "Violación"
  },
  {
    "id": 6,
    "description": "Tortura"
  },
  {
    "id": 7,
    "description": "Extorsión"
  }
]
